\relax 
\@writefile{toc}{\contentsline {chapter}{\numberline {4}Wybrane aspekty implementacyjne}{29}}
\@writefile{lof}{\addvspace {10\p@ }}
\@writefile{lot}{\addvspace {10\p@ }}
\@writefile{toc}{\contentsline {section}{\numberline {4.1}Ewolucyjny system wieloagentowy}{29}}
\@writefile{toc}{\contentsline {section}{\numberline {4.2}Immunologiczny, ewolucyjny system wieloagentowy}{31}}
\@writefile{lof}{\contentsline {figure}{\numberline {4.1}{\ignorespaces Diagram Klas IEMAS}}{32}}
\newlabel{diagram_klas_iemas}{{4.1}{32}}
\citation{OTaMoGD}
\citation{ItMSA}
\@writefile{toc}{\contentsline {subsection}{\numberline {4.2.1}Operator}{33}}
\@writefile{toc}{\contentsline {subsection}{\numberline {4.2.2}Odleg\IeC {\l }o\IeC {\'s}\IeC {\'c} Mahalanobisa}{33}}
\@writefile{toc}{\contentsline {subsection}{\numberline {4.2.3}Zbiornik retencyjny}{33}}
\newlabel{lst:zbiornik_retencyjny}{{4.1}{34}}
\@writefile{lol}{\contentsline {lstlisting}{\numberline {4.1}Wydzielanie energii z zbiornika retencyjnego}{34}}
\@writefile{toc}{\contentsline {subsection}{\numberline {4.2.4}Moment inercji}{34}}
\newlabel{lst:moment_inercji}{{4.2}{34}}
\@writefile{lol}{\contentsline {lstlisting}{\numberline {4.2}Liczenie momentu inercji}{34}}
\@writefile{toc}{\contentsline {subsection}{\numberline {4.2.5}Modu\IeC {\l } statystyk}{34}}
\@writefile{toc}{\contentsline {section}{\numberline {4.3}Uruchomienie oblicze\IeC {\'n} na platformie}{35}}
\@writefile{toc}{\contentsline {subsection}{\numberline {4.3.1}Konfiguracja}{35}}
\@setckpt{rozdzial4}{
\setcounter{page}{38}
\setcounter{equation}{0}
\setcounter{enumi}{2}
\setcounter{enumii}{3}
\setcounter{enumiii}{0}
\setcounter{enumiv}{0}
\setcounter{footnote}{0}
\setcounter{mpfootnote}{0}
\setcounter{part}{0}
\setcounter{chapter}{4}
\setcounter{section}{3}
\setcounter{subsection}{1}
\setcounter{subsubsection}{0}
\setcounter{paragraph}{0}
\setcounter{subparagraph}{0}
\setcounter{figure}{1}
\setcounter{table}{0}
\setcounter{lofdepth}{1}
\setcounter{lotdepth}{1}
\setcounter{lstnumber}{17}
\setcounter{float@type}{8}
\setcounter{lstlisting}{2}
}
