\relax 
\@writefile{toc}{\contentsline {chapter}{\numberline {7}Podsumowanie}{53}}
\@writefile{lof}{\addvspace {10\p@ }}
\@writefile{lot}{\addvspace {10\p@ }}
\newlabel{cha:Podsumowanie}{{7}{53}}
\@writefile{toc}{\contentsline {section}{\numberline {7.1}Wnioski}{53}}
\newlabel{sec:Wnioski}{{7.1}{53}}
\@setckpt{rozdzial7}{
\setcounter{page}{54}
\setcounter{equation}{0}
\setcounter{enumi}{7}
\setcounter{enumii}{3}
\setcounter{enumiii}{0}
\setcounter{enumiv}{0}
\setcounter{footnote}{0}
\setcounter{mpfootnote}{0}
\setcounter{part}{0}
\setcounter{chapter}{7}
\setcounter{section}{1}
\setcounter{subsection}{0}
\setcounter{subsubsection}{0}
\setcounter{paragraph}{0}
\setcounter{subparagraph}{0}
\setcounter{figure}{0}
\setcounter{table}{0}
\setcounter{lofdepth}{1}
\setcounter{lotdepth}{1}
\setcounter{lstnumber}{27}
\setcounter{float@type}{8}
\setcounter{lstlisting}{0}
}
