\relax 
\citation{Cohen2001a}
\citation{Varela}
\@writefile{toc}{\contentsline {chapter}{\numberline {3}Podej\IeC {\'s}cie immunologiczne w EMAS}{19}}
\@writefile{lof}{\addvspace {10\p@ }}
\@writefile{lot}{\addvspace {10\p@ }}
\newlabel{cha:Immunologiczny EMAS}{{3}{19}}
\@writefile{toc}{\contentsline {section}{\numberline {3.1}Inspiracje biologiczne}{19}}
\newlabel{sec:Immunologia}{{3.1}{19}}
\citation{Ishida}
\citation{Farmer}
\citation{CANIPR}
\newlabel{Nomenklatura}{{3.1}{21}}
\@writefile{lot}{\contentsline {table}{\numberline {3.1}{\ignorespaces Tabela poj\IeC {\k e}\IeC {\'c}}}{21}}
\@writefile{toc}{\contentsline {section}{\numberline {3.2}Algorytmy immunologiczne}{21}}
\newlabel{sec: Algorytmy immunologiczne}{{3.2}{21}}
\citation{CSAwEA}
\@writefile{toc}{\contentsline {subsection}{\numberline {3.2.1}Selekcja klonalna}{22}}
\newlabel{sec:Selekcja klonalna}{{3.2.1}{22}}
\newlabel{Algorytm}{{3.2.1}{23}}
\newlabel{lst:selekcja_klonalna}{{3.1}{23}}
\@writefile{lol}{\contentsline {lstlisting}{\numberline {3.1}Pseudokod algorytmu CLONALG}{23}}
\@writefile{toc}{\contentsline {subsection}{\numberline {3.2.2}Selekcja negatywna}{23}}
\newlabel{sec:Selekcja negatywna}{{3.2.2}{23}}
\citation{CANIPR}
\newlabel{lst:selekcja_negatywna}{{3.2}{24}}
\@writefile{lol}{\contentsline {lstlisting}{\numberline {3.2}Pseudokod algorytmu selekcji negatywnej}{24}}
\@writefile{toc}{\contentsline {subsection}{\numberline {3.2.3}Sieci immunologiczne}{24}}
\newlabel{sec:Sieci immunologiczne}{{3.2.3}{24}}
\newlabel{AlgorytmImmunologiczny}{{3.2.3}{24}}
\newlabel{lst:sieci_immunologiczne}{{3.3}{24}}
\@writefile{lol}{\contentsline {lstlisting}{\numberline {3.3}Pseudokod algorytmu sieci immunologicznych}{24}}
\@writefile{toc}{\contentsline {section}{\numberline {3.3}Immunologiczny system wieloagentowy}{25}}
\newlabel{iEMAS}{{3.3}{25}}
\@writefile{toc}{\contentsline {subsection}{\numberline {3.3.1}Cel i budowa systemu}{25}}
\citation{MoPD}
\citation{MoDfPaDBIwHRG}
\citation{MoPD2}
\citation{MoPCiECS}
\@writefile{lof}{\contentsline {figure}{\numberline {3.1}{\ignorespaces Diagram pogl\IeC {\k a}dowy IEMAS}}{27}}
\newlabel{iemas_schemat}{{3.1}{27}}
\@writefile{toc}{\contentsline {subsection}{\numberline {3.3.2}Metoda dzia\IeC {\l }ania}{27}}
\@setckpt{rozdzial3}{
\setcounter{page}{29}
\setcounter{equation}{0}
\setcounter{enumi}{2}
\setcounter{enumii}{3}
\setcounter{enumiii}{0}
\setcounter{enumiv}{0}
\setcounter{footnote}{0}
\setcounter{mpfootnote}{0}
\setcounter{part}{0}
\setcounter{chapter}{3}
\setcounter{section}{3}
\setcounter{subsection}{2}
\setcounter{subsubsection}{0}
\setcounter{paragraph}{0}
\setcounter{subparagraph}{0}
\setcounter{figure}{1}
\setcounter{table}{1}
\setcounter{lofdepth}{1}
\setcounter{lotdepth}{1}
\setcounter{lstnumber}{23}
\setcounter{float@type}{8}
\setcounter{lstlisting}{3}
}
