\relax 
\citation{website:newton-rhapson}
\@writefile{toc}{\contentsline {chapter}{\numberline {2}Algorytmy ewolucyjne jako technika optymalizacji}{9}}
\@writefile{lof}{\addvspace {10\p@ }}
\@writefile{lot}{\addvspace {10\p@ }}
\@writefile{toc}{\contentsline {section}{\numberline {2.1}Optymalizacja}{9}}
\@writefile{toc}{\contentsline {subsection}{\numberline {2.1.1}Definicja optymalizacji}{9}}
\@writefile{toc}{\contentsline {subsection}{\numberline {2.1.2}Metody optymalizacji}{9}}
\citation{website:gradientowe}
\citation{article:pattern}
\citation{document:memetic}
\citation{website:swarmintelligence}
\citation{document:simulatedannealing}
\citation{Darwin}
\@writefile{toc}{\contentsline {section}{\numberline {2.2}Algorytmy ewolucyjne}{11}}
\newlabel{cha:Algorytmy ewolucyjne}{{2.2}{11}}
\@writefile{toc}{\contentsline {subsection}{\numberline {2.2.1}Inspiracje biologiczne}{11}}
\@writefile{toc}{\contentsline {subsection}{\numberline {2.2.2}Przebieg oblicze\IeC {\'n}}{11}}
\citation{GAfOCoBF}
\citation{AbMiSfO}
\@writefile{lof}{\contentsline {figure}{\numberline {2.1}{\ignorespaces Przebieg algorytmu ewolucyjnego}}{12}}
\newlabel{przebieg_algorytmu_ewolucyjnego}{{2.1}{12}}
\@writefile{toc}{\contentsline {subsection}{\numberline {2.2.3}Zastosowania}{12}}
\@writefile{toc}{\contentsline {section}{\numberline {2.3}Ewolucyjny system wieloagentowy}{13}}
\@writefile{toc}{\contentsline {subsection}{\numberline {2.3.1}Cel i budowa systemu}{13}}
\@writefile{toc}{\contentsline {subsection}{\numberline {2.3.2}Mo\IeC {\.z}liwe dzia\IeC {\l }ania agent\IeC {\'o}w}{13}}
\@writefile{lof}{\contentsline {figure}{\numberline {2.2}{\ignorespaces Diagram pogl\IeC {\k a}dowy EMAS}}{14}}
\newlabel{iemas_schemat}{{2.2}{14}}
\citation{website:GNAD}
\citation{website:EAAO}
\newlabel{sec:EMAS}{{2.3.2}{16}}
\@writefile{toc}{\contentsline {section}{\numberline {2.4}Podsumowanie}{16}}
\@setckpt{rozdzial2}{
\setcounter{page}{18}
\setcounter{equation}{0}
\setcounter{enumi}{6}
\setcounter{enumii}{0}
\setcounter{enumiii}{0}
\setcounter{enumiv}{0}
\setcounter{footnote}{0}
\setcounter{mpfootnote}{0}
\setcounter{part}{0}
\setcounter{chapter}{2}
\setcounter{section}{4}
\setcounter{subsection}{0}
\setcounter{subsubsection}{0}
\setcounter{paragraph}{0}
\setcounter{subparagraph}{0}
\setcounter{figure}{2}
\setcounter{table}{0}
\setcounter{lofdepth}{1}
\setcounter{lotdepth}{1}
\setcounter{lstnumber}{1}
\setcounter{float@type}{8}
\setcounter{lstlisting}{0}
}
