\relax 
\@writefile{toc}{\contentsline {chapter}{\numberline {6}Podsumowanie}{57}}
\@writefile{lof}{\addvspace {10\p@ }}
\@writefile{lot}{\addvspace {10\p@ }}
\newlabel{cha:Podsumowanie}{{6}{57}}
\@setckpt{rozdzial6}{
\setcounter{page}{58}
\setcounter{equation}{0}
\setcounter{enumi}{7}
\setcounter{enumii}{3}
\setcounter{enumiii}{0}
\setcounter{enumiv}{0}
\setcounter{footnote}{0}
\setcounter{mpfootnote}{0}
\setcounter{part}{0}
\setcounter{chapter}{6}
\setcounter{section}{0}
\setcounter{subsection}{0}
\setcounter{subsubsection}{0}
\setcounter{paragraph}{0}
\setcounter{subparagraph}{0}
\setcounter{figure}{0}
\setcounter{table}{0}
\setcounter{lofdepth}{1}
\setcounter{lotdepth}{1}
\setcounter{lstnumber}{17}
\setcounter{float@type}{8}
\setcounter{lstlisting}{0}
}
